Text Analysis of Hamlet
…
Step 2: Find characters involved in these lines to correct the number of lines per character involved, I did visually find who were involved in the All saying.

hamlet %>%
  filter(act %in% c("ACT I", "ACT III"), scene == "SCENE II") %>%
  mutate(label = ifelse(character == "All", "Keep", NA_character_)) %>%
  group_by(act, scene) %>%
  fill(label, .direction = "up") %>%
  filter((label == "Keep" &
            str_detect(text, pattern = "\\[|\\]")) |
           (character == "All")) %>%
  select(-label)

## # A tibble: 32 x 4
## # Groups:   act, scene [2]
##    character     text                                             act    scene  
##    <chr>         <chr>                                            <chr>  <chr>  
##  1 SCENE II      "[Enter KING CLAUDIUS, QUEEN GERTRUDE, HAMLET,"  ACT I  SCENE 
##  2 SCENE II      "and Attendants]"                                ACT I  SCENE 
##  3 KING CLAUDIUS "[Exeunt VOLTIMAND and CORNELIUS]"               ACT I  SCENE 
##  4 HAMLET        "[Aside]  A little more than kin, and less than ACT I  SCENE 
##  5 KING CLAUDIUS "[Exeunt all but HAMLET]"                        ACT I  SCENE 
##  6 HAMLET        "[Enter HORATIO, MARCELLUS, and BERNARDO]"       ACT I  SCENE 
##  7 All           "                  Our duty to your honour."     ACT I  SCENE 
##  8 SCENE II      "[Enter HAMLET and Players]"                     ACT I SCENE 
##  9 HAMLET        "[Exeunt Players]"                               ACT I SCENE 
## 10 HAMLET        "[Enter POLONIUS, ROSENCRANTZ, and GUILDENSTERN ACT I SCENE 
## #  with 22 more rows
…
